<svg width="450" height="280" viewBox="0 0 450 280" fill="none" xmlns="http://www.w3.org/2000/svg">
<mask id="mask0_834:537" style="mask-type:alpha" maskUnits="userSpaceOnUse" x="0" y="0" width="450" height="280">
<rect width="450" height="280" rx="24.4169" fill="white"/>
</mask>
<g mask="url(#mask0_834:537)">
<rect x="-0.00195312" width="450" height="280" rx="24.4169" fill="#007EED"/>
<path d="M-19.0352 85.7422L207.647 187.568C226.76 196.155 232.017 220.5 218.108 236.011L69.3334 401.914L2.92008 422.821L-19.0352 85.7422Z" fill="#242424"/>
<path d="M399.681 -168.804H459.516V235.79L206.353 74.0836C189.648 63.4141 187.18 40.2826 201.267 26.4226L399.681 -168.804Z" fill="#242424"/>
<path fill-rule="evenodd" clip-rule="evenodd" d="M385.415 66.6298C382.207 69.0144 378.166 70.4426 373.775 70.4426C363.379 70.4426 354.92 62.4552 354.92 52.6378C354.92 42.8204 363.379 34.833 373.775 34.833C378.166 34.833 382.207 36.2611 385.415 38.646C388.715 36.196 392.814 34.833 397.068 34.833C407.465 34.833 415.924 42.8204 415.924 52.6378C415.924 62.4552 407.465 70.4426 397.068 70.4426C392.814 70.4426 388.715 69.0787 385.415 66.6298ZM397.068 64.1581C403.796 64.1581 409.269 58.9908 409.269 52.6379C409.269 46.285 403.796 41.1177 397.068 41.1177C394.455 41.1177 391.933 41.9135 389.855 43.351C391.615 46.0559 392.632 49.2364 392.632 52.6379C392.632 56.0381 391.616 59.2186 389.857 61.9248C391.933 63.3623 394.455 64.1581 397.068 64.1581Z" fill="white"/>
</g>
</svg>
