<svg width="18" height="24" viewBox="0 0 18 24" fill="none" xmlns="http://www.w3.org/2000/svg">
  <path d="M16.2178 14.1377L17.5743 12.7812C17.8392 12.5163 17.8392 12.0871 17.5743 11.8221L16.2178 10.4656C16.0907 10.3385 15.9185 10.267 15.7383 10.267H10.9906V14.3364H15.7383C15.9185 14.3364 16.0907 14.2649 16.2178 14.1377Z" fill="#007EED"/>
  <path d="M16.2178 8.71175L17.5743 7.35526C17.8392 7.09034 17.8392 6.6611 17.5743 6.39618L16.2178 5.03969C16.0907 4.91254 15.9185 4.84101 15.7383 4.84101H10.9906V8.91048H15.7383C15.9185 8.91048 16.0907 8.83894 16.2178 8.71175Z" fill="#007EED"/>
  <path d="M6.92112 22.5206H6.24288C5.86799 22.5206 5.56463 22.824 5.56463 23.1988C5.56463 23.5737 5.86799 23.8771 6.24288 23.8771H11.6688C12.0437 23.8771 12.3471 23.5737 12.3471 23.1988C12.3471 22.824 12.0437 22.5206 11.6688 22.5206H10.9906V16.3712C10.9906 15.9963 10.6872 15.6929 10.3124 15.6929H9.63411V1.40456C9.63411 1.02967 9.33075 0.726318 8.95586 0.726318C8.58097 0.726318 8.27761 1.02967 8.27761 1.40456V15.6929H7.59937C7.22448 15.6929 6.92112 15.9963 6.92112 16.3712V22.5206Z" fill="#007EED"/>
  <path d="M1.69385 11.4247C1.821 11.5519 1.99323 11.6235 2.17337 11.6235H6.92109V7.55399H2.17337C1.99323 7.55399 1.821 7.62552 1.69385 7.75271L0.337364 9.1092C0.0724412 9.37412 0.0724412 9.80336 0.337364 10.0683L1.69385 11.4247Z" fill="#007EED"/>
  <path d="M1.69385 5.99877C1.821 6.12596 1.99323 6.1975 2.17337 6.1975H6.92109V2.12802H2.17337C1.99323 2.12802 1.821 2.19956 1.69385 2.32675L0.337364 3.68324C0.0724412 3.94816 0.0724412 4.3774 0.337364 4.64232L1.69385 5.99877Z" fill="#007EED"/>
</svg>
