<svg width="32" height="32" viewBox="0 0 11 11" fill="none" xmlns="http://www.w3.org/2000/svg">
  <rect x="0.111328" y="0.157715" width="10.6553" height="10.6553" rx="5.32767" fill="#F42A25"/>
  <path d="M7.9117 7.88356L5.3378 6.52074C5.27072 6.48515 5.18892 6.49006 5.12552 6.53301L3.15736 7.89583C3.08374 7.94695 3.05184 8.0398 3.07883 8.12528C3.10501 8.20995 3.18436 8.26844 3.27352 8.26844H7.81558C7.90925 8.26844 7.99146 8.20463 8.01395 8.11301C8.03686 8.0218 7.99432 7.92732 7.9117 7.88356Z" fill="white"/>
  <path d="M8.77292 7.49474L8.16759 4.76951C8.15286 4.70284 8.10583 4.64844 8.04243 4.62349C7.97863 4.59854 7.90705 4.60713 7.85142 4.64558L5.88286 6.0084C5.82396 6.0493 5.79083 6.11761 5.79533 6.18836C5.79942 6.25994 5.84073 6.32375 5.90372 6.35688L8.47721 7.7197C8.50748 7.73565 8.5402 7.74383 8.57292 7.74383C8.61668 7.74383 8.66045 7.72993 8.69685 7.7017C8.76025 7.65344 8.7901 7.57287 8.77292 7.49474Z" fill="white"/>
  <path d="M7.34837 4.32179C7.32137 4.2363 7.24243 4.17822 7.15286 4.17822H5.28614C4.94666 4.79297 4.44439 5.38071 4.23784 5.61058C4.12168 5.73982 3.95522 5.81426 3.78139 5.81426C3.60756 5.81426 3.44109 5.73982 3.32493 5.61058C3.24518 5.52182 3.12165 5.3799 2.98014 5.20402L2.48523 7.43149C2.46724 7.5137 2.50119 7.59837 2.57072 7.6454C2.60507 7.66872 2.64516 7.68017 2.68483 7.68017C2.72573 7.68017 2.76622 7.66831 2.8014 7.64377L7.26902 4.55042C7.34305 4.50011 7.37454 4.40727 7.34837 4.32179Z" fill="white"/>
  <path d="M3.78212 1.72437C2.99273 1.72437 2.35059 2.36651 2.35059 3.1559C2.35059 3.89049 3.49909 5.19155 3.62997 5.33756C3.66883 5.38051 3.72404 5.40546 3.78212 5.40546C3.8402 5.40546 3.89542 5.38051 3.93427 5.33756C4.06516 5.19155 5.21366 3.89049 5.21366 3.1559C5.21366 2.36651 4.57151 1.72437 3.78212 1.72437ZM3.78212 3.76942C3.44346 3.76942 3.16861 3.49456 3.16861 3.1559C3.16861 2.81724 3.44346 2.54239 3.78212 2.54239C4.12078 2.54239 4.39564 2.81724 4.39564 3.1559C4.39564 3.49456 4.12078 3.76942 3.78212 3.76942Z" fill="white"/>
</svg>
