<svg
  width="80"
  height="613"
  viewBox="0 0 62 613"
  fill="none"
  xmlns="http://www.w3.org/2000/svg"
>
  <path
    d="M3.03696 24.6542C5.59615 30.2321 6.47034 34.0141 8.26626 40.21C10.0622 46.406 11.0869 54.5167 20.3544 57.443C31.1511 59.7248 45.2464 59.4924 51.445 57.3584C57.6436 55.2245 62.0673 40.6564 61.9406 27.4193C61.8666 27.1552 61.7874 25.2167 61.6976 24.9526L60.039 -4.68541C59.9281 -7.32647 58.5864 -9.96753 56.4709 -9.91207C54.3581 -9.85133 52.9425 -7.64868 52.821 -4.99705C52.821 -4.99705 52.7153 14.5732 51.5454 14.7343C50.3754 14.8954 49.8392 -14.0295 49.8392 -14.0295C49.6596 -16.6705 47.7634 -18.7834 45.6135 -18.6989C43.4637 -18.6144 41.6863 -16.3932 41.6308 -13.7416C41.6308 -13.7416 41.9847 13.942 41.0366 14.0952C40.0884 14.2484 38.2819 -17.381 38.2819 -17.381C38.039 -20.0221 36.0846 -22.1138 33.9348 -22.0293C31.7849 -21.9448 30.0339 -19.6998 30.0365 -17.0509C30.0365 -17.0509 31.1141 14.7211 29.9705 14.7396C28.8269 14.7581 28.7873 -13.3613 28.7873 -13.3613C28.6738 -16.0024 26.8277 -18.1733 24.6884 -18.168C22.5491 -18.1627 20.7004 -15.9918 20.5789 -13.3428L19.1395 20.307C19.1395 20.3862 19.1395 20.4654 19.1395 20.5447C18.2072 27.1922 18.4159 30.689 17.6473 30.9901C16.8788 31.2911 14.4648 24.2897 12.5448 21.4294C10.6247 18.5692 7.15701 12.022 2.66721 13.6515C-0.425478 15.0539 0.430226 19.0762 3.03696 24.6542Z"
    fill="#DEDEDE"
  />
  <mask
    id="mask0_153:9052"
    style="mask-type: alpha"
    maskUnits="userSpaceOnUse"
    x="0"
    y="-23"
    width="62"
    height="83"
  >
    <path
      d="M3.03696 24.6546C5.59615 30.2326 6.47034 34.0146 8.26626 40.2105C10.0622 46.4064 11.0869 54.5172 20.3544 57.4434C31.1511 59.7253 45.2464 59.4929 51.445 57.3589C57.6436 55.2249 62.0673 40.6568 61.9406 27.4198C61.8666 27.1557 61.7874 25.2172 61.6976 24.9531L60.039 -4.68492C59.9281 -7.32598 58.5864 -9.96704 56.4709 -9.91158C54.3581 -9.85084 52.9425 -7.64819 52.821 -4.99656C52.821 -4.99656 52.7153 14.5737 51.5454 14.7348C50.3754 14.8959 49.8392 -14.029 49.8392 -14.029C49.6596 -16.6701 47.7634 -18.7829 45.6135 -18.6984C43.4637 -18.6139 41.6863 -16.3927 41.6308 -13.7411C41.6308 -13.7411 41.9847 13.9425 41.0366 14.0957C40.0884 14.2489 38.2819 -17.3805 38.2819 -17.3805C38.039 -20.0216 36.0846 -22.1133 33.9348 -22.0288C31.7849 -21.9443 30.0339 -19.6994 30.0365 -17.0504C30.0365 -17.0504 31.1141 14.7216 29.9705 14.7401C28.8269 14.7586 28.7873 -13.3608 28.7873 -13.3608C28.6738 -16.0019 26.8277 -18.1728 24.6884 -18.1675C22.5491 -18.1623 20.7004 -15.9913 20.5789 -13.3423L19.1395 20.3075C19.1395 20.3867 19.1395 20.4659 19.1395 20.5452C18.2072 27.1927 18.4159 30.6895 17.6473 30.9906C16.8788 31.2916 14.4648 24.2902 12.5448 21.4299C10.6247 18.5696 7.15701 12.0224 2.66721 13.652C-0.425478 15.0544 0.430226 19.0767 3.03696 24.6546Z"
      fill="url(#paint0_linear_153:9052)"
    />
  </mask>
  <g mask="url(#mask0_153:9052)">
    <g opacity="0.15">
      <path
        opacity="0.38"
        d="M64.3988 23.6614C64.3988 23.6614 58.8183 54.1815 37.1695 53.8461C15.5207 53.5107 10.8619 37.0041 10.3997 35.768C9.9375 34.532 -1.93144 15.1413 1.97469 10.9077C1.97469 10.9077 -4.39819 17.5104 0.72811 30.8451C5.85441 44.1798 4.30147 64.4183 34.7978 64.038C65.2942 63.6577 68.548 37.7647 64.3988 23.6614Z"
        fill="#007EED"
      />
      <path
        opacity="0.38"
        d="M55.8096 -10.7179C55.8096 -10.7179 60.8038 -7.22115 61.2105 3.50685C61.2105 3.50685 64.1606 -12.0543 55.8096 -10.7179Z"
        fill="#007EED"
      />
    </g>
  </g>
  <path
    d="M3.03647 301.509C5.59566 307.087 6.46985 310.869 8.26577 317.065C10.0617 323.261 11.0864 331.372 20.3539 334.298C31.1506 336.58 45.2459 336.347 51.4445 334.213C57.6431 332.079 62.0669 317.511 61.9401 304.274C61.8661 304.01 61.7869 302.072 61.6971 301.808L60.0385 272.17C59.9276 269.529 58.5859 266.887 56.4705 266.943C54.3576 267.004 52.942 269.206 52.8205 271.858C52.8205 271.858 52.7149 291.428 51.5449 291.589C50.3749 291.75 49.8387 262.825 49.8387 262.825C49.6592 260.184 47.7629 258.072 45.613 258.156C43.4632 258.241 41.6858 260.462 41.6303 263.113C41.6303 263.113 41.9842 290.797 41.0361 290.95C40.0879 291.103 38.2815 259.474 38.2815 259.474C38.0385 256.833 36.0841 254.741 33.9343 254.826C31.7844 254.91 30.0334 257.155 30.0361 259.804C30.0361 259.804 31.1136 291.576 29.97 291.595C28.8264 291.613 28.7868 263.494 28.7868 263.494C28.6733 260.853 26.8272 258.682 24.6879 258.687C22.5486 258.692 20.6999 260.863 20.5784 263.512L19.139 297.162C19.139 297.241 19.139 297.32 19.139 297.4C18.2067 304.047 18.4154 307.544 17.6468 307.845C16.8783 308.146 14.4643 301.145 12.5443 298.284C10.6242 295.424 7.15653 288.877 2.66672 290.506C-0.425966 291.909 0.429738 295.931 3.03647 301.509Z"
    fill="#DEDEDE"
  />
  <mask
    id="mask1_153:9052"
    style="mask-type: alpha"
    maskUnits="userSpaceOnUse"
    x="0"
    y="254"
    width="62"
    height="82"
  >
    <path
      d="M3.03647 301.51C5.59566 307.088 6.46985 310.87 8.26577 317.065C10.0617 323.261 11.0864 331.372 20.3539 334.298C31.1506 336.58 45.2459 336.348 51.4445 334.214C57.6431 332.08 62.0669 317.512 61.9401 304.275C61.8661 304.011 61.7869 302.072 61.6971 301.808L60.0385 272.17C59.9276 269.529 58.5859 266.888 56.4705 266.943C54.3576 267.004 52.942 269.207 52.8205 271.858C52.8205 271.858 52.7149 291.429 51.5449 291.59C50.3749 291.751 49.8387 262.826 49.8387 262.826C49.6592 260.185 47.7629 258.072 45.613 258.157C43.4632 258.241 41.6858 260.462 41.6303 263.114C41.6303 263.114 41.9842 290.797 41.0361 290.951C40.0879 291.104 38.2815 259.474 38.2815 259.474C38.0385 256.833 36.0841 254.742 33.9343 254.826C31.7844 254.911 30.0334 257.156 30.0361 259.805C30.0361 259.805 31.1136 291.577 29.97 291.595C28.8264 291.614 28.7868 263.494 28.7868 263.494C28.6733 260.853 26.8272 258.682 24.6879 258.687C22.5486 258.693 20.6999 260.864 20.5784 263.513L19.139 297.162C19.139 297.242 19.139 297.321 19.139 297.4C18.2067 304.048 18.4154 307.544 17.6468 307.846C16.8783 308.147 14.4643 301.145 12.5443 298.285C10.6242 295.425 7.15653 288.877 2.66672 290.507C-0.425966 291.909 0.429738 295.932 3.03647 301.51Z"
      fill="url(#paint1_linear_153:9052)"
    />
  </mask>
  <g mask="url(#mask1_153:9052)">
    <g opacity="0.15">
      <path
        opacity="0.38"
        d="M64.3988 300.517C64.3988 300.517 58.8183 331.037 37.1695 330.702C15.5207 330.366 10.8619 313.86 10.3997 312.624C9.9375 311.387 -1.93144 291.997 1.97469 287.763C1.97469 287.763 -4.39819 294.366 0.72811 307.701C5.85441 321.035 4.30147 341.274 34.7978 340.893C65.2942 340.513 68.548 314.62 64.3988 300.517Z"
        fill="#007EED"
      />
      <path
        opacity="0.38"
        d="M45.0049 257.031C45.0049 257.031 50.3002 261.143 50.3451 270.55C50.3451 270.55 53.7785 258.475 45.0049 257.031Z"
        fill="#007EED"
      />
      <path
        opacity="0.38"
        d="M55.8096 266.138C55.8096 266.138 60.8038 269.634 61.2105 280.362C61.2105 280.362 64.1606 264.801 55.8096 266.138Z"
        fill="#007EED"
      />
      <path
        opacity="0.38"
        d="M39.3719 266.795C39.3719 266.795 38.1174 254.298 32.0879 254.908C32.0879 254.908 39.0524 251.147 40.1722 258.175C41.292 265.203 39.3719 266.795 39.3719 266.795Z"
        fill="#007EED"
      />
      <path
        opacity="0.38"
        d="M29.2935 271.785C29.2935 271.785 28.5012 259.61 23.6416 257.616C23.6416 257.616 31.1343 255.559 29.2935 271.785Z"
        fill="#007EED"
      />
    </g>
  </g>
  <path
    d="M3.03647 439.937C5.59566 445.515 6.46985 449.297 8.26577 455.493C10.0617 461.689 11.0864 469.799 20.3539 472.726C31.1506 475.008 45.2459 474.775 51.4445 472.641C57.6431 470.507 62.0669 455.939 61.9401 442.702C61.8661 442.438 61.7869 440.499 61.6971 440.235L60.0385 410.597C59.9276 407.956 58.5859 405.315 56.4705 405.371C54.3576 405.431 52.942 407.634 52.8205 410.286C52.8205 410.286 52.7149 429.856 51.5449 430.017C50.3749 430.178 49.8387 401.253 49.8387 401.253C49.6592 398.612 47.7629 396.499 45.613 396.584C43.4632 396.668 41.6858 398.889 41.6303 401.541C41.6303 401.541 41.9842 429.225 41.0361 429.378C40.0879 429.531 38.2815 397.902 38.2815 397.902C38.0385 395.261 36.0841 393.169 33.9343 393.253C31.7844 393.338 30.0334 395.583 30.0361 398.232C30.0361 398.232 31.1136 430.004 29.97 430.022C28.8264 430.041 28.7868 401.921 28.7868 401.921C28.6733 399.28 26.8272 397.109 24.6879 397.115C22.5486 397.12 20.6999 399.291 20.5784 401.94L19.139 435.59C19.139 435.669 19.139 435.748 19.139 435.827C18.2067 442.475 18.4154 445.972 17.6468 446.273C16.8783 446.574 14.4643 439.572 12.5443 436.712C10.6242 433.852 7.15653 427.305 2.66672 428.934C-0.425966 430.337 0.429738 434.359 3.03647 439.937Z"
    fill="#DEDEDE"
  />
  <mask
    id="mask2_153:9052"
    style="mask-type: alpha"
    maskUnits="userSpaceOnUse"
    x="0"
    y="393"
    width="62"
    height="82"
  >
    <path
      d="M3.03647 439.937C5.59566 445.515 6.46985 449.297 8.26577 455.493C10.0617 461.689 11.0864 469.8 20.3539 472.726C31.1506 475.008 45.2459 474.776 51.4445 472.642C57.6431 470.508 62.0669 455.94 61.9401 442.703C61.8661 442.438 61.7869 440.5 61.6971 440.236L60.0385 410.598C59.9276 407.957 58.5859 405.316 56.4705 405.371C54.3576 405.432 52.942 407.635 52.8205 410.286C52.8205 410.286 52.7149 429.856 51.5449 430.018C50.3749 430.179 49.8387 401.254 49.8387 401.254C49.6592 398.613 47.7629 396.5 45.613 396.584C43.4632 396.669 41.6858 398.89 41.6303 401.542C41.6303 401.542 41.9842 429.225 41.0361 429.378C40.0879 429.532 38.2815 397.902 38.2815 397.902C38.0385 395.261 36.0841 393.169 33.9343 393.254C31.7844 393.338 30.0334 395.583 30.0361 398.232C30.0361 398.232 31.1136 430.004 29.97 430.023C28.8264 430.041 28.7868 401.922 28.7868 401.922C28.6733 399.281 26.8272 397.11 24.6879 397.115C22.5486 397.12 20.6999 399.291 20.5784 401.94L19.139 435.59C19.139 435.669 19.139 435.749 19.139 435.828C18.2067 442.475 18.4154 445.972 17.6468 446.273C16.8783 446.574 14.4643 439.573 12.5443 436.713C10.6242 433.852 7.15653 427.305 2.66672 428.935C-0.425966 430.337 0.429738 434.359 3.03647 439.937Z"
      fill="url(#paint2_linear_153:9052)"
    />
  </mask>
  <g mask="url(#mask2_153:9052)">
    <g opacity="0.15">
      <path
        opacity="0.38"
        d="M64.3988 438.944C64.3988 438.944 58.8183 469.464 37.1695 469.128C15.5207 468.793 10.8619 452.286 10.3997 451.05C9.9375 449.814 -1.93144 430.424 1.97469 426.19C1.97469 426.19 -4.39819 432.793 0.72811 446.127C5.85441 459.462 4.30147 479.701 34.7978 479.32C65.2942 478.94 68.548 453.047 64.3988 438.944Z"
        fill="#007EED"
      />
      <path
        opacity="0.38"
        d="M45.0049 395.458C45.0049 395.458 50.3002 399.57 50.3451 408.977C50.3451 408.977 53.7785 396.902 45.0049 395.458Z"
        fill="#007EED"
      />
      <path
        opacity="0.38"
        d="M55.8096 404.564C55.8096 404.564 60.8038 408.061 61.2105 418.789C61.2105 418.789 64.1606 403.228 55.8096 404.564Z"
        fill="#007EED"
      />
      <path
        opacity="0.38"
        d="M39.3719 405.222C39.3719 405.222 38.1174 392.725 32.0879 393.335C32.0879 393.335 39.0524 389.574 40.1722 396.602C41.292 403.63 39.3719 405.222 39.3719 405.222Z"
        fill="#007EED"
      />
      <path
        opacity="0.38"
        d="M29.2935 410.212C29.2935 410.212 28.5012 398.037 23.6416 396.043C23.6416 396.043 31.1343 393.985 29.2935 410.212Z"
        fill="#007EED"
      />
    </g>
  </g>
  <path
    d="M3.03647 578.364C5.59566 583.942 6.46985 587.724 8.26577 593.919C10.0617 600.115 11.0864 608.226 20.3539 611.152C31.1506 613.434 45.2459 613.202 51.4445 611.068C57.6431 608.934 62.0669 594.366 61.9401 581.129C61.8661 580.865 61.7869 578.926 61.6971 578.662L60.0385 549.024C59.9276 546.383 58.5859 543.742 56.4705 543.797C54.3576 543.858 52.942 546.061 52.8205 548.712C52.8205 548.712 52.7149 568.283 51.5449 568.444C50.3749 568.605 49.8387 539.68 49.8387 539.68C49.6592 537.039 47.7629 534.926 45.613 535.011C43.4632 535.095 41.6858 537.316 41.6303 539.968C41.6303 539.968 41.9842 567.651 41.0361 567.805C40.0879 567.958 38.2815 536.328 38.2815 536.328C38.0385 533.687 36.0841 531.596 33.9343 531.68C31.7844 531.765 30.0334 534.01 30.0361 536.659C30.0361 536.659 31.1136 568.431 29.97 568.449C28.8264 568.468 28.7868 540.348 28.7868 540.348C28.6733 537.707 26.8272 535.536 24.6879 535.541C22.5486 535.547 20.6999 537.718 20.5784 540.367L19.139 574.016C19.139 574.096 19.139 574.175 19.139 574.254C18.2067 580.902 18.4154 584.398 17.6468 584.7C16.8783 585.001 14.4643 577.999 12.5443 575.139C10.6242 572.279 7.15653 565.731 2.66672 567.361C-0.425966 568.763 0.429738 572.786 3.03647 578.364Z"
    fill="#DEDEDE"
  />
  <mask
    id="mask3_153:9052"
    style="mask-type: alpha"
    maskUnits="userSpaceOnUse"
    x="0"
    y="531"
    width="62"
    height="82"
  >
    <path
      d="M3.03647 578.364C5.59566 583.942 6.46985 587.724 8.26577 593.92C10.0617 600.116 11.0864 608.227 20.3539 611.153C31.1506 613.435 45.2459 613.202 51.4445 611.068C57.6431 608.934 62.0669 594.366 61.9401 581.129C61.8661 580.865 61.7869 578.927 61.6971 578.663L60.0385 549.025C59.9276 546.383 58.5859 543.742 56.4705 543.798C54.3576 543.859 52.942 546.061 52.8205 548.713C52.8205 548.713 52.7149 568.283 51.5449 568.444C50.3749 568.605 49.8387 539.68 49.8387 539.68C49.6592 537.039 47.7629 534.927 45.613 535.011C43.4632 535.096 41.6858 537.317 41.6303 539.968C41.6303 539.968 41.9842 567.652 41.0361 567.805C40.0879 567.958 38.2815 536.329 38.2815 536.329C38.0385 533.688 36.0841 531.596 33.9343 531.681C31.7844 531.765 30.0334 534.01 30.0361 536.659C30.0361 536.659 31.1136 568.431 29.97 568.45C28.8264 568.468 28.7868 540.349 28.7868 540.349C28.6733 537.708 26.8272 535.537 24.6879 535.542C22.5486 535.547 20.6999 537.718 20.5784 540.367L19.139 574.017C19.139 574.096 19.139 574.175 19.139 574.255C18.2067 580.902 18.4154 584.399 17.6468 584.7C16.8783 585.001 14.4643 578 12.5443 575.139C10.6242 572.279 7.15653 565.732 2.66672 567.361C-0.425966 568.764 0.429738 572.786 3.03647 578.364Z"
      fill="url(#paint3_linear_153:9052)"
    />
  </mask>
  <g mask="url(#mask3_153:9052)">
    <g opacity="0.15">
      <path
        opacity="0.38"
        d="M64.3988 577.371C64.3988 577.371 58.8183 607.891 37.1695 607.556C15.5207 607.22 10.8619 590.714 10.3997 589.478C9.9375 588.241 -1.93144 568.851 1.97469 564.617C1.97469 564.617 -4.39819 571.22 0.72811 584.555C5.85441 597.889 4.30147 618.128 34.7978 617.747C65.2942 617.367 68.548 591.474 64.3988 577.371Z"
        fill="#007EED"
      />
      <path
        opacity="0.38"
        d="M45.0049 533.885C45.0049 533.885 50.3002 537.997 50.3451 547.404C50.3451 547.404 53.7785 535.329 45.0049 533.885Z"
        fill="#007EED"
      />
      <path
        opacity="0.38"
        d="M55.8096 542.992C55.8096 542.992 60.8038 546.488 61.2105 557.216C61.2105 557.216 64.1606 541.655 55.8096 542.992Z"
        fill="#007EED"
      />
      <path
        opacity="0.38"
        d="M39.3719 543.649C39.3719 543.649 38.1174 531.152 32.0879 531.762C32.0879 531.762 39.0524 528.001 40.1722 535.029C41.292 542.057 39.3719 543.649 39.3719 543.649Z"
        fill="#007EED"
      />
      <path
        opacity="0.38"
        d="M29.2935 548.639C29.2935 548.639 28.5012 536.464 23.6416 534.47C23.6416 534.47 31.1343 532.413 29.2935 548.639Z"
        fill="#007EED"
      />
    </g>
  </g>
  <path
    d="M3.03647 163.081C5.59566 168.659 6.46985 172.441 8.26577 178.637C10.0617 184.833 11.0864 192.944 20.3539 195.87C31.1506 198.152 45.2459 197.92 51.4445 195.786C57.6431 193.652 62.0669 179.084 61.9401 165.847C61.8661 165.582 61.7869 163.644 61.6971 163.38L60.0385 133.742C59.9276 131.101 58.5859 128.46 56.4705 128.515C54.3576 128.576 52.942 130.779 52.8205 133.43C52.8205 133.43 52.7149 153 51.5449 153.162C50.3749 153.323 49.8387 124.398 49.8387 124.398C49.6592 121.757 47.7629 119.644 45.613 119.728C43.4632 119.813 41.6858 122.034 41.6303 124.686C41.6303 124.686 41.9842 152.369 41.0361 152.522C40.0879 152.676 38.2815 121.046 38.2815 121.046C38.0385 118.405 36.0841 116.313 33.9343 116.398C31.7844 116.482 30.0334 118.727 30.0361 121.376C30.0361 121.376 31.1136 153.148 29.97 153.167C28.8264 153.185 28.7868 125.066 28.7868 125.066C28.6733 122.425 26.8272 120.254 24.6879 120.259C22.5486 120.264 20.6999 122.435 20.5784 125.084L19.139 158.734C19.139 158.813 19.139 158.893 19.139 158.972C18.2067 165.619 18.4154 169.116 17.6468 169.417C16.8783 169.718 14.4643 162.717 12.5443 159.857C10.6242 156.996 7.15653 150.449 2.66672 152.079C-0.425966 153.481 0.429738 157.503 3.03647 163.081Z"
    fill="#DEDEDE"
  />
  <mask
    id="mask4_153:9052"
    style="mask-type: alpha"
    maskUnits="userSpaceOnUse"
    x="0"
    y="116"
    width="62"
    height="82"
  >
    <path
      d="M3.03647 163.082C5.59566 168.66 6.46985 172.442 8.26577 178.638C10.0617 184.834 11.0864 192.944 20.3539 195.871C31.1506 198.153 45.2459 197.92 51.4445 195.786C57.6431 193.652 62.0669 179.084 61.9401 165.847C61.8661 165.583 61.7869 163.644 61.6971 163.38L60.0385 133.742C59.9276 131.101 58.5859 128.46 56.4705 128.516C54.3576 128.576 52.942 130.779 52.8205 133.431C52.8205 133.431 52.7149 153.001 51.5449 153.162C50.3749 153.323 49.8387 124.398 49.8387 124.398C49.6592 121.757 47.7629 119.644 45.613 119.729C43.4632 119.813 41.6858 122.034 41.6303 124.686C41.6303 124.686 41.9842 152.37 41.0361 152.523C40.0879 152.676 38.2815 121.047 38.2815 121.047C38.0385 118.406 36.0841 116.314 33.9343 116.398C31.7844 116.483 30.0334 118.728 30.0361 121.377C30.0361 121.377 31.1136 153.149 29.97 153.167C28.8264 153.186 28.7868 125.066 28.7868 125.066C28.6733 122.425 26.8272 120.254 24.6879 120.26C22.5486 120.265 20.6999 122.436 20.5784 125.085L19.139 158.735C19.139 158.814 19.139 158.893 19.139 158.972C18.2067 165.62 18.4154 169.117 17.6468 169.418C16.8783 169.719 14.4643 162.717 12.5443 159.857C10.6242 156.997 7.15653 150.45 2.66672 152.079C-0.425966 153.482 0.429738 157.504 3.03647 163.082Z"
      fill="url(#paint4_linear_153:9052)"
    />
  </mask>
  <g mask="url(#mask4_153:9052)">
    <g opacity="0.15">
      <path
        opacity="0.38"
        d="M64.3988 162.089C64.3988 162.089 58.8183 192.609 37.1695 192.273C15.5207 191.938 10.8619 175.431 10.3997 174.195C9.9375 172.959 -1.93144 153.569 1.97469 149.335C1.97469 149.335 -4.39819 155.938 0.72811 169.272C5.85441 182.607 4.30147 202.846 34.7978 202.465C65.2942 202.085 68.548 176.192 64.3988 162.089Z"
        fill="#007EED"
      />
      <path
        opacity="0.38"
        d="M45.0049 118.603C45.0049 118.603 50.3002 122.715 50.3451 132.122C50.3451 132.122 53.7785 120.047 45.0049 118.603Z"
        fill="#007EED"
      />
      <path
        opacity="0.38"
        d="M55.8096 127.709C55.8096 127.709 60.8038 131.206 61.2105 141.934C61.2105 141.934 64.1606 126.373 55.8096 127.709Z"
        fill="#007EED"
      />
      <path
        opacity="0.38"
        d="M39.3719 128.367C39.3719 128.367 38.1174 115.87 32.0879 116.48C32.0879 116.48 39.0524 112.719 40.1722 119.747C41.292 126.775 39.3719 128.367 39.3719 128.367Z"
        fill="#007EED"
      />
      <path
        opacity="0.38"
        d="M29.2935 133.357C29.2935 133.357 28.5012 121.182 23.6416 119.188C23.6416 119.188 31.1343 117.13 29.2935 133.357Z"
        fill="#007EED"
      />
    </g>
  </g>
  <defs>
    <linearGradient
      id="paint0_linear_153:9052"
      x1="-5.21423"
      y1="18.6205"
      x2="77.4664"
      y2="18.6205"
      gradientUnits="userSpaceOnUse"
    >
      <stop offset="0.350101" stop-color="#E9EFEF" />
      <stop offset="0.888542" stop-color="white" />
    </linearGradient>
    <linearGradient
      id="paint1_linear_153:9052"
      x1="-5.21472"
      y1="295.475"
      x2="77.4659"
      y2="295.475"
      gradientUnits="userSpaceOnUse"
    >
      <stop offset="0.350101" stop-color="#E9EFEF" />
      <stop offset="0.888542" stop-color="white" />
    </linearGradient>
    <linearGradient
      id="paint2_linear_153:9052"
      x1="-5.21472"
      y1="433.903"
      x2="77.4659"
      y2="433.903"
      gradientUnits="userSpaceOnUse"
    >
      <stop offset="0.350101" stop-color="#E9EFEF" />
      <stop offset="0.888542" stop-color="white" />
    </linearGradient>
    <linearGradient
      id="paint3_linear_153:9052"
      x1="-5.21472"
      y1="572.33"
      x2="77.4659"
      y2="572.33"
      gradientUnits="userSpaceOnUse"
    >
      <stop offset="0.350101" stop-color="#E9EFEF" />
      <stop offset="0.888542" stop-color="white" />
    </linearGradient>
    <linearGradient
      id="paint4_linear_153:9052"
      x1="-5.21472"
      y1="157.048"
      x2="77.4659"
      y2="157.048"
      gradientUnits="userSpaceOnUse"
    >
      <stop offset="0.350101" stop-color="#E9EFEF" />
      <stop offset="0.888542" stop-color="white" />
    </linearGradient>
  </defs>
</svg>