<svg width="23" height="18" viewBox="0 0 23 18" fill="none" xmlns="http://www.w3.org/2000/svg">
  <path d="M13.6813 6.26488C13.3399 6.12672 12.6678 6.00669 12.0044 6.75918C11.8553 6.92818 11.641 7.02513 11.4151 7.02562H11.4135C11.1889 7.02562 10.9746 6.9295 10.825 6.76182C10.4113 6.29703 9.99602 6.16513 9.65836 6.16513C9.44946 6.16513 9.27057 6.21558 9.13966 6.26834C8.71593 6.44031 8.38716 6.77913 8.21322 7.22232C8.02163 7.71117 8.04059 8.26532 8.26548 8.7428C8.64453 9.54938 9.4981 10.797 11.4138 12.2433C13.3199 10.8038 14.1738 9.55136 14.5555 8.73934C14.7804 8.26186 14.7994 7.70738 14.6078 7.21902C14.4338 6.77567 14.1046 6.43685 13.6813 6.26488Z" fill="#F42A25"/>
  <path d="M21.5246 13.8442C21.6496 13.2025 21.9754 11.351 21.9602 9.53637C21.9446 7.7008 21.6179 5.46146 21.4976 4.69825C21.9546 4.27435 22.2151 3.68195 22.2151 3.05954C22.2151 1.82264 21.2013 0.816406 19.9548 0.816406C19.3387 0.816406 18.7481 1.06834 18.3222 1.51037C17.8106 1.42777 13.9553 0.821847 11.1387 0.821847C8.59405 0.821847 5.48004 1.30774 4.4649 1.47838C4.0415 1.05696 3.46328 0.816901 2.86478 0.816901C1.61831 0.816901 0.604492 1.82314 0.604492 3.05987C0.604492 3.61996 0.811247 4.15185 1.18914 4.5647C1.11396 5.18381 0.84043 7.56758 0.84043 9.53802C0.84043 11.4626 1.11858 13.409 1.20052 13.9395C0.815533 14.355 0.604492 14.8907 0.604492 15.4566C0.604492 16.6935 1.61831 17.6997 2.86478 17.6997C3.46113 17.6997 4.0382 17.4608 4.46111 17.0415C5.4319 17.2135 8.43841 17.6997 11.4098 17.6997C14.4166 17.6997 17.7981 17.1106 18.3306 17.0142C18.7557 17.4507 19.3428 17.6997 19.9548 17.6997C21.2013 17.6997 22.2151 16.6935 22.2151 15.4566C22.2151 14.8493 21.9643 14.267 21.5246 13.8442ZM15.7012 9.27636C15.0275 10.7091 13.7405 12.1213 11.8766 13.4739C11.7382 13.5742 11.5757 13.6248 11.4131 13.6248C11.251 13.6248 11.0886 13.5742 10.9501 13.4739C9.10352 12.1343 7.77857 10.6837 7.11841 9.27982C6.74662 8.48957 6.71578 7.57137 7.03317 6.7615C7.33506 5.99153 7.91377 5.40029 8.66297 5.09692C9.90251 4.59421 10.8789 5.13451 11.4115 5.57654C11.9425 5.13286 12.9158 4.59009 14.1566 5.09362C14.9058 5.39699 15.4845 5.98824 15.7864 6.75821C15.9315 7.12901 16.0042 7.52257 16.0042 7.91613C16.0042 8.38223 15.9028 8.84817 15.7012 9.27636Z" fill="#F42A25"/>
</svg>
