<svg width="19" height="19" viewBox="0 0 19 19" fill="none" xmlns="http://www.w3.org/2000/svg">
  <path d="M0.856708 18.6657H4.04408V13.3179H0.290039V18.1344C0.290039 18.428 0.562997 18.6657 0.856708 18.6657ZM2.18373 15.4427C2.47716 15.4427 2.71498 15.6806 2.71498 15.974C2.71498 16.2674 2.47716 16.5052 2.18373 16.5052C1.8903 16.5052 1.65248 16.2674 1.65248 15.974C1.65248 15.6806 1.89044 15.4427 2.18373 15.4427Z" fill="white"/>
  <path d="M8.82618 13.3179H5.10742V18.6657H8.82618V13.3179ZM6.9657 16.5052C6.6724 16.5052 6.43444 16.2674 6.43444 15.974C6.43444 15.6806 6.6724 15.4427 6.9657 15.4427C7.25913 15.4427 7.49695 15.6806 7.49695 15.974C7.49695 16.2674 7.25913 16.5052 6.9657 16.5052Z" fill="white"/>
  <path d="M13.6065 13.3179H9.8877V18.6657H13.6065V13.3179ZM11.7461 16.5052C11.4527 16.5052 11.2149 16.2674 11.2149 15.974C11.2149 15.6806 11.4527 15.4427 11.7461 15.4427C12.0395 15.4427 12.2772 15.6806 12.2772 15.974C12.2772 16.2674 12.0395 16.5052 11.7461 16.5052Z" fill="white"/>
  <path d="M14.6689 18.6657H17.8563C18.15 18.6657 18.423 18.428 18.423 18.1344V13.3179H14.6689V18.6657ZM16.5626 15.4427C16.8561 15.4427 17.0939 15.6806 17.0939 15.974C17.0939 16.2674 16.8561 16.5052 16.5626 16.5052C16.2692 16.5052 16.0314 16.2674 16.0314 15.974C16.0314 15.6806 16.2692 15.4427 16.5626 15.4427Z" fill="white"/>
  <path d="M17.8927 10.0933H0.857684C0.563974 10.0933 0.291016 10.3309 0.291016 10.6245V12.2537H18.424V10.6245C18.424 10.3309 18.1865 10.0933 17.8927 10.0933Z" fill="white"/>
  <path d="M10.951 2.12501C10.951 3.00517 10.2376 3.71862 9.35743 3.71862C8.47713 3.71862 7.76367 3.00517 7.76367 2.12501C7.76367 1.2447 8.47713 0.53125 9.35743 0.53125C10.2376 0.53125 10.951 1.2447 10.951 2.12501Z" fill="white"/>
  <path d="M13.6073 9.0321V6.90723C13.6073 5.7353 12.6542 4.78223 11.4823 4.78223H7.23243C6.06049 4.78223 5.10742 5.7353 5.10742 6.90723V9.0321H7.23243V7.43849C7.23243 7.14505 7.47025 6.90723 7.76368 6.90723C8.05698 6.90723 8.29493 7.14505 8.29493 7.43849V9.0321H10.9511V7.43849C10.9511 7.14505 11.189 6.90723 11.4823 6.90723C11.7757 6.90723 12.0136 7.14505 12.0136 7.43849V9.0321H13.6073Z" fill="white"/>
  <path d="M3.63915 5.60744C3.79935 5.84802 4.12737 5.91955 4.37584 5.75478C4.88012 5.41859 5.18102 4.86354 5.18102 4.26893C5.18102 3.67501 4.88012 3.11982 4.37584 2.78364C4.16473 2.64308 4.04381 2.4101 4.04381 2.14406C4.04381 1.87844 4.16473 1.64546 4.37584 1.5049C4.62016 1.34193 4.68615 1.01252 4.52318 0.768202C4.3609 0.523881 4.03094 0.457475 3.78649 0.620862C3.28221 0.957045 2.98145 1.52662 2.98145 2.14406C2.98145 2.76192 3.28221 3.33149 3.78649 3.66767C3.99774 3.80823 4.11852 4.02779 4.11852 4.26893C4.11852 4.51076 3.99774 4.73018 3.78649 4.87074C3.54216 5.03371 3.47631 5.36312 3.63915 5.60744Z" fill="white"/>
  <path d="M1.13233 3.66767C1.34344 3.80823 1.46436 4.02779 1.46436 4.26893C1.46436 4.51076 1.34344 4.73018 1.13233 4.87074C0.888007 5.03371 0.822015 5.36312 0.984988 5.60744C1.14505 5.84802 1.47308 5.91955 1.72168 5.75478C2.22596 5.41859 2.52686 4.86354 2.52686 4.26893C2.52686 3.67501 2.22596 3.11982 1.72168 2.78364C1.51057 2.64308 1.38965 2.4101 1.38965 2.14406C1.38965 1.87844 1.51057 1.64546 1.72168 1.5049C1.96601 1.34193 2.03186 1.01252 1.86902 0.768202C1.7066 0.523881 1.3772 0.457475 1.13233 0.620862C0.628053 0.957045 0.327148 1.52662 0.327148 2.14406C0.327148 2.76192 0.628053 3.33149 1.13233 3.66767Z" fill="white"/>
  <path d="M15.8299 2.14406C15.8299 1.5262 15.4935 0.957045 14.9893 0.620862C14.7444 0.457475 14.415 0.523881 14.2526 0.768202C14.0896 1.01252 14.156 1.34248 14.3999 1.5049C14.611 1.64546 14.7319 1.87844 14.7319 2.14406C14.7319 2.4101 14.611 2.64308 14.3999 2.78364C13.8956 3.11982 13.5947 3.67501 13.5947 4.26893C13.5947 4.86354 13.8956 5.41859 14.3999 5.75477C14.6484 5.91941 14.9764 5.84802 15.1366 5.60744C15.2994 5.36311 15.2336 5.03371 14.9893 4.87074C14.7781 4.73018 14.6572 4.51076 14.6572 4.26893C14.6572 4.02779 14.7781 3.80823 14.9893 3.66767C15.4935 3.33149 15.8299 2.76247 15.8299 2.14406Z" fill="white"/>
  <path d="M17.6182 0.620862C17.3723 0.457475 17.0433 0.523881 16.8815 0.768202C16.7186 1.01252 16.7845 1.34193 17.0288 1.5049C17.2399 1.64546 17.3608 1.87844 17.3608 2.14406C17.3608 2.4101 17.2399 2.64308 17.0288 2.78364C16.5245 3.11982 16.2236 3.67501 16.2236 4.26893C16.2236 4.86354 16.5245 5.41859 17.0288 5.75477C17.2773 5.91941 17.6054 5.84802 17.7655 5.60744C17.9285 5.36311 17.8625 5.03371 17.6182 4.87074C17.4071 4.73018 17.2861 4.51076 17.2861 4.26893C17.2861 4.02779 17.4071 3.80823 17.6182 3.66767C18.1224 3.33149 18.4233 2.76192 18.4233 2.14406C18.4233 1.52662 18.1224 0.957045 17.6182 0.620862Z" fill="white"/>
</svg>
