<svg width="158" height="30" viewBox="0 0 158 30" fill="none" xmlns="http://www.w3.org/2000/svg">
<path d="M2.57795 0.0263672C1.31052 0.0263672 0.282227 1.05406 0.282227 2.32209V26.9121C0.282227 28.1795 1.31052 29.2078 2.57795 29.2078C3.84598 29.2078 4.87368 28.1795 4.87368 26.9121V2.32209C4.87368 1.05406 3.84598 0.0263672 2.57795 0.0263672Z" fill="white"/>
<path d="M56.9393 0.0249023C55.6718 0.0249023 54.6436 1.0526 54.6436 2.32063V26.9106C54.6436 28.178 55.6718 29.2063 56.9393 29.2063C58.2073 29.2063 59.235 28.178 59.235 26.9106V2.32063C59.235 1.0526 58.2073 0.0249023 56.9393 0.0249023Z" fill="white"/>
<path d="M111.301 0.0249023C110.033 0.0249023 109.005 1.0526 109.005 2.32063V26.9106C109.005 28.178 110.033 29.2063 111.301 29.2063C112.569 29.2063 113.596 28.178 113.596 26.9106V2.32063C113.596 1.0526 112.569 0.0249023 111.301 0.0249023Z" fill="white"/>
<path d="M24.7098 0.0249023C23.4418 0.0249023 22.4141 1.0526 22.4141 2.32063V26.9106C22.4141 28.178 23.4418 29.2063 24.7098 29.2063C25.9778 29.2063 27.0055 28.178 27.0055 26.9106V2.32063C27.0055 1.0526 25.9778 0.0249023 24.7098 0.0249023Z" fill="white"/>
<path d="M79.0711 0.0249023C77.8031 0.0249023 76.7754 1.0526 76.7754 2.32063V26.9106C76.7754 28.178 77.8031 29.2063 79.0711 29.2063C80.3391 29.2063 81.3668 28.178 81.3668 26.9106V2.32063C81.3668 1.0526 80.3391 0.0249023 79.0711 0.0249023Z" fill="white"/>
<path d="M133.432 0.0249023C132.164 0.0249023 131.137 1.0526 131.137 2.32063V26.9106C131.137 28.178 132.164 29.2063 133.432 29.2063C134.7 29.2063 135.728 28.178 135.728 26.9106V2.32063C135.728 1.0526 134.7 0.0249023 133.432 0.0249023Z" fill="white"/>
<path d="M46.8406 0.0249023C45.5726 0.0249023 44.5449 1.0526 44.5449 2.32063V26.9106C44.5449 28.178 45.5726 29.2063 46.8406 29.2063C48.1081 29.2063 49.1364 28.178 49.1364 26.9106V2.32063C49.1364 1.0526 48.1081 0.0249023 46.8406 0.0249023Z" fill="white"/>
<path d="M101.201 0.0249023C99.933 0.0249023 98.9053 1.0526 98.9053 2.32063V26.9106C98.9053 28.178 99.933 29.2063 101.201 29.2063C102.468 29.2063 103.497 28.178 103.497 26.9106V2.32063C103.497 1.0526 102.468 0.0249023 101.201 0.0249023Z" fill="white"/>
<path d="M155.562 0.0249023C154.294 0.0249023 153.267 1.0526 153.267 2.32063V26.9106C153.267 28.178 154.294 29.2063 155.562 29.2063C156.83 29.2063 157.858 28.178 157.858 26.9106V2.32063C157.858 1.0526 156.83 0.0249023 155.562 0.0249023Z" fill="white"/>
<path d="M14.8718 0.0249023H12.4129C11.1449 0.0249023 10.1172 1.0526 10.1172 2.32063V26.9106C10.1172 28.178 11.1449 29.2063 12.4129 29.2063H14.8718C16.1393 29.2063 17.1676 28.178 17.1676 26.9106V2.32063C17.1676 1.0526 16.1399 0.0249023 14.8718 0.0249023Z" fill="white"/>
<path d="M69.2332 0.0249023H66.7742C65.5062 0.0249023 64.4785 1.0526 64.4785 2.32063V26.9106C64.4785 28.178 65.5062 29.2063 66.7742 29.2063H69.2332C70.5006 29.2063 71.5289 28.178 71.5289 26.9106V2.32063C71.5289 1.0526 70.5012 0.0249023 69.2332 0.0249023Z" fill="white"/>
<path d="M123.595 0.0249023H121.136C119.868 0.0249023 118.84 1.0526 118.84 2.32063V26.9106C118.84 28.178 119.868 29.2063 121.136 29.2063H123.595C124.862 29.2063 125.89 28.178 125.89 26.9106V2.32063C125.89 1.0526 124.863 0.0249023 123.595 0.0249023Z" fill="white"/>
<path d="M37.0027 0.0249023H34.5438C33.2763 0.0249023 32.248 1.0526 32.248 2.32063V26.9106C32.248 28.178 33.2763 29.2063 34.5438 29.2063H37.0027C38.2707 29.2063 39.2984 28.178 39.2984 26.9106V2.32063C39.2984 1.0526 38.2707 0.0249023 37.0027 0.0249023Z" fill="white"/>
<path d="M91.364 0.0249023H88.9051C87.6377 0.0249023 86.6094 1.0526 86.6094 2.32063V26.9106C86.6094 28.178 87.6377 29.2063 88.9051 29.2063H91.364C92.6321 29.2063 93.6598 28.178 93.6598 26.9106V2.32063C93.6598 1.0526 92.6321 0.0249023 91.364 0.0249023Z" fill="white"/>
<path d="M145.725 0.0249023H143.266C141.999 0.0249023 140.971 1.0526 140.971 2.32063V26.9106C140.971 28.178 141.999 29.2063 143.266 29.2063H145.725C146.993 29.2063 148.021 28.178 148.021 26.9106V2.32063C148.021 1.0526 146.993 0.0249023 145.725 0.0249023Z" fill="white"/>
</svg>
