<svg width="32" height="32" viewBox="0 0 12 11" fill="none" xmlns="http://www.w3.org/2000/svg">
  <rect x="0.530273" y="0.157715" width="10.6553" height="10.6553" rx="5.32767" fill="#007EED"/>
  <path d="M3.27153 8.47183H3.95937C4.22488 8.47183 4.44086 8.2255 4.44086 7.92269V4.31404C4.44086 4.01122 4.22488 3.76489 3.95937 3.76489H3.27153C3.00602 3.76489 2.79004 4.01122 2.79004 4.31404V7.92269C2.79004 8.2255 3.00602 8.47183 3.27153 8.47183Z" fill="white"/>
  <path d="M6.30749 1.48999C6.03235 1.48999 5.89479 1.64689 5.89479 2.43138C5.89479 3.17696 5.2617 3.77693 4.85449 4.08602V7.97333C5.29499 8.20585 6.1768 8.5504 7.54561 8.5504H7.98583C8.52234 8.5504 8.97907 8.11108 9.06987 7.50859L9.37802 5.46892C9.49358 4.70012 8.97632 4.00036 8.29398 4.00036H6.99533C6.99533 4.00036 7.20169 3.52966 7.20169 2.74517C7.20169 1.80379 6.58263 1.48999 6.30749 1.48999Z" fill="white"/>
</svg>
